<svg width="20" height="14" viewBox="0 0 20 14" fill="none" xmlns="http://www.w3.org/2000/svg">
<path d="M9.37529 9.77783C10.264 9.14393 10.9391 8.21964 11.3005 7.14174C11.662 6.06384 11.6907 4.88962 11.3824 3.79284C11.0741 2.69607 10.4451 1.73502 9.58859 1.05193C8.73206 0.368838 7.69348 0 6.62656 0C5.55964 0 4.52107 0.368838 3.66454 1.05193C2.80801 1.73502 2.17904 2.69607 1.87072 3.79284C1.5624 4.88962 1.5911 6.06384 1.95258 7.14174C2.31406 8.21964 2.98912 9.14393 3.87784 9.77783C2.36286 10.3779 1.05348 11.4582 0.123259 12.8755C0.0725104 12.9519 0.0363246 13.0382 0.016785 13.1296C-0.00275463 13.2211 -0.00526206 13.3157 0.00940709 13.4082C0.0240762 13.5007 0.0556322 13.5891 0.102258 13.6684C0.148885 13.7477 0.20966 13.8163 0.281086 13.8703C0.352513 13.9243 0.433179 13.9626 0.518441 13.983C0.603704 14.0034 0.691878 14.0055 0.777889 13.9891C0.8639 13.9727 0.946049 13.9383 1.01961 13.8877C1.09316 13.8371 1.15668 13.7714 1.20649 13.6943C1.81778 12.7606 2.62935 11.9984 3.57266 11.4723C4.51597 10.9461 5.56333 10.6715 6.62631 10.6714C7.68929 10.6714 8.73666 10.946 9.68001 11.4721C10.6234 11.9981 11.435 12.7602 12.0463 13.694C12.0963 13.7705 12.1599 13.8356 12.2334 13.8857C12.3069 13.9358 12.3889 13.9698 12.4747 13.9859C12.5604 14.0019 12.6483 13.9996 12.7332 13.9792C12.8181 13.9587 12.8985 13.9205 12.9697 13.8667C13.0408 13.8129 13.1014 13.7445 13.148 13.6655C13.1946 13.5866 13.2262 13.4985 13.241 13.4064C13.2558 13.3143 13.2536 13.22 13.2345 13.1288C13.2153 13.0376 13.1797 12.9513 13.1295 12.875C12.1993 11.4579 10.8901 10.3778 9.37529 9.77774V9.77783ZM2.98347 5.33712C2.98347 4.56342 3.19713 3.8071 3.59743 3.16379C3.99774 2.52048 4.5667 2.01908 5.23239 1.723C5.89807 1.42692 6.63056 1.34945 7.33724 1.50039C8.04393 1.65133 8.69306 2.02391 9.20255 2.57099C9.71204 3.11808 10.059 3.81511 10.1996 4.57395C10.3401 5.33278 10.268 6.11933 9.99226 6.83414C9.71653 7.54894 9.24959 8.1599 8.65049 8.58974C8.0514 9.01958 7.34705 9.24901 6.62652 9.24901C5.66066 9.24784 4.73467 8.83532 4.0517 8.10195C3.36874 7.36858 2.98457 6.37426 2.98347 5.33712ZM19.719 13.8661C19.6479 13.9199 19.5676 13.9581 19.4827 13.9786C19.3978 13.9991 19.31 14.0014 19.2243 13.9854C19.1386 13.9694 19.0567 13.9355 18.9832 13.8855C18.9097 13.8355 18.8461 13.7705 18.7961 13.6941C18.184 12.7612 17.3723 11.9997 16.4291 11.4737C15.486 10.9478 14.439 10.6726 13.3763 10.6715C13.2006 10.6715 13.0321 10.5966 12.9079 10.4632C12.7837 10.3298 12.7139 10.1489 12.7139 9.96027C12.7139 9.77163 12.7837 9.59072 12.9079 9.45734C13.0321 9.32395 13.2006 9.24901 13.3763 9.24901C13.8965 9.24839 14.4106 9.12813 14.8839 8.89632C15.3572 8.66452 15.7788 8.32656 16.1203 7.90516C16.4618 7.48376 16.7153 6.98871 16.8638 6.45332C17.0122 5.91792 17.0522 5.3546 16.9809 4.80125C16.9096 4.24789 16.7288 3.71735 16.4506 3.2453C16.1725 2.77326 15.8033 2.37067 15.3681 2.06461C14.9329 1.75855 14.4418 1.55613 13.9276 1.47096C13.4135 1.38579 12.8883 1.41986 12.3874 1.57086C12.2186 1.62115 12.038 1.59753 11.8853 1.50517C11.7326 1.41281 11.6202 1.25924 11.5728 1.07809C11.5253 0.896942 11.5467 0.702981 11.6321 0.538684C11.7175 0.374387 11.8601 0.253147 12.0287 0.201515C13.1681 -0.143693 14.3849 -0.0405043 15.4598 0.492482C16.5346 1.02547 17.3968 1.9532 17.891 3.10846C18.3852 4.26372 18.4788 5.57053 18.155 6.79336C17.8312 8.01618 17.1112 9.07459 16.125 9.77783C17.6398 10.3779 18.949 11.458 19.8792 12.8751C19.9803 13.0293 20.0203 13.2204 19.9902 13.4062C19.9602 13.5921 19.8626 13.7575 19.719 13.8661Z" fill="#BFBFBF"/>
</svg>
