<svg viewBox="0 0 23 23" fill="none" xmlns="http://www.w3.org/2000/svg">
<path d="M10.2222 1.27778C10.2222 1.27778 10.2222 0 11.5 0C12.7778 0 12.7778 1.27778 12.7778 1.27778V2.55556C12.7778 2.55556 12.7778 3.83333 11.5 3.83333C10.2222 3.83333 10.2222 2.55556 10.2222 2.55556V1.27778ZM21.7222 10.2222C21.7222 10.2222 23 10.2222 23 11.5C23 12.7778 21.7222 12.7778 21.7222 12.7778H20.4444C20.4444 12.7778 19.1667 12.7778 19.1667 11.5C19.1667 10.2222 20.4444 10.2222 20.4444 10.2222H21.7222ZM2.55556 10.2222C2.55556 10.2222 3.83333 10.2222 3.83333 11.5C3.83333 12.7778 2.55556 12.7778 2.55556 12.7778H1.27778C1.27778 12.7778 0 12.7778 0 11.5C0 10.2222 1.27778 10.2222 1.27778 10.2222H2.55556ZM5.82731 4.65942C5.82731 4.65942 6.73069 5.56281 5.82731 6.46619C4.92392 7.36958 4.02053 6.46619 4.02053 6.46619L3.1165 5.56344C3.1165 5.56344 2.21311 4.66006 3.1165 3.75603C4.02053 2.85264 4.92392 3.75603 4.92392 3.75603L5.82731 4.65942ZM19.244 18.0761C19.244 18.0761 20.1474 18.9795 19.244 19.8829C18.3406 20.7863 17.4372 19.8829 17.4372 19.8829L16.5338 18.9795C16.5338 18.9795 15.6304 18.0761 16.5338 17.1727C17.4372 16.2693 18.3406 17.1727 18.3406 17.1727L19.244 18.0761ZM18.9801 6.46619C18.9801 6.46619 18.0767 7.36958 17.1733 6.46619C16.2699 5.56281 17.1733 4.65942 17.1733 4.65942L18.0767 3.75603C18.0767 3.75603 18.9801 2.85264 19.8835 3.75603C20.7869 4.65942 19.8835 5.56281 19.8835 5.56281L18.9801 6.46619ZM5.56344 19.8829C5.56344 19.8829 4.66006 20.7863 3.75667 19.8829C2.85328 18.9795 3.75667 18.0761 3.75667 18.0761L4.66006 17.1727C4.66006 17.1727 5.56344 16.2693 6.46683 17.1727C7.37022 18.0761 6.46683 18.9795 6.46683 18.9795L5.56344 19.8829ZM10.2222 20.4444C10.2222 20.4444 10.2222 19.1667 11.5 19.1667C12.7778 19.1667 12.7778 20.4444 12.7778 20.4444V21.7222C12.7778 21.7222 12.7778 23 11.5 23C10.2222 23 10.2222 21.7222 10.2222 21.7222V20.4444Z" fill="#FFAC33"/>
<path d="M11.5002 17.8891C15.0287 17.8891 17.8891 15.0287 17.8891 11.5002C17.8891 7.97173 15.0287 5.11133 11.5002 5.11133C7.97173 5.11133 5.11133 7.97173 5.11133 11.5002C5.11133 15.0287 7.97173 17.8891 11.5002 17.8891Z" fill="#FFAC33"/>
</svg>
