<svg  viewBox="0 0 18 18" fill="currentColor"; xmlns="http://www.w3.org/2000/svg">
<path d="M9.24191 6.61907C8.7369 6.57058 8.22881 6.67502 7.78722 6.91806C7.34563 7.16111 6.99212 7.53089 6.77508 7.97678C6.55805 8.42267 6.48811 8.92286 6.57483 9.40888C6.66156 9.89489 6.90071 10.343 7.25954 10.6918C7.61838 11.0406 8.07935 11.273 8.57936 11.3573C9.07936 11.4416 9.59395 11.3736 10.0527 11.1627C10.5114 10.9517 10.8918 10.6081 11.1418 10.1789C11.3919 9.74962 11.4993 9.25575 11.4494 8.76486C11.3926 8.21457 11.1417 7.70031 10.7394 7.30924C10.3371 6.91817 9.80803 6.67434 9.24191 6.61907V6.61907ZM15.1684 9C15.1669 9.26006 15.1472 9.51972 15.1096 9.7772L16.8483 11.1028C16.924 11.1638 16.975 11.2489 16.9923 11.343C17.0095 11.4371 16.9919 11.5342 16.9425 11.6168L15.2976 14.3832C15.2477 14.4651 15.1696 14.5272 15.0772 14.5585C14.9847 14.5899 14.8838 14.5886 14.7923 14.5548L13.0655 13.8789C12.9703 13.842 12.8671 13.8287 12.7653 13.8401C12.6635 13.8515 12.5662 13.8873 12.4821 13.9443C12.2185 14.1207 11.9416 14.2774 11.6537 14.4131C11.5631 14.4558 11.4848 14.5196 11.4257 14.5988C11.3665 14.6779 11.3283 14.77 11.3145 14.8669L11.0556 16.6572C11.0386 16.7517 10.9884 16.8376 10.9135 16.9001C10.8385 16.9627 10.7436 16.998 10.6449 17H7.35511C7.25802 16.9984 7.1644 16.9646 7.08966 16.9044C7.01493 16.8441 6.96355 16.7609 6.94399 16.6684L6.68554 14.8807C6.67103 14.7828 6.63184 14.6898 6.57145 14.6101C6.51107 14.5304 6.43136 14.4665 6.33941 14.4239C6.05182 14.289 5.77583 14.1318 5.51408 13.954C5.43028 13.8973 5.33329 13.8618 5.23184 13.8507C5.13039 13.8395 5.02769 13.8531 4.93297 13.8901L3.20655 14.5656C3.11506 14.5995 3.01421 14.6009 2.92176 14.5695C2.82932 14.5382 2.75121 14.4762 2.7012 14.3944L1.05631 11.628C1.00686 11.5454 0.989187 11.4484 1.00644 11.3542C1.0237 11.2601 1.07476 11.175 1.15054 11.114L2.62005 9.99252C2.70056 9.9304 2.76383 9.84972 2.80413 9.7578C2.84443 9.66589 2.86047 9.56564 2.8508 9.46617C2.83696 9.31028 2.8285 9.15477 2.8285 8.99888C2.8285 8.84299 2.83658 8.68972 2.8508 8.5372C2.85941 8.43833 2.84258 8.33893 2.80183 8.24796C2.76108 8.15699 2.69769 8.0773 2.61736 8.01607L1.14861 6.89458C1.07407 6.83331 1.02408 6.74849 1.00741 6.65498C0.990748 6.56148 1.00847 6.46526 1.05747 6.38318L2.70235 3.61682C2.75231 3.53495 2.83039 3.47284 2.92284 3.44145C3.01529 3.41006 3.11617 3.4114 3.2077 3.44523L4.93451 4.12112C5.02973 4.15798 5.13288 4.17129 5.2347 4.15987C5.33652 4.14846 5.43384 4.11266 5.51793 4.0557C5.78147 3.8793 6.0584 3.72259 6.34634 3.58692C6.43686 3.54415 6.51516 3.48038 6.57432 3.40123C6.63347 3.32208 6.67167 3.22998 6.68554 3.13308L6.94437 1.3428C6.96137 1.24825 7.01162 1.16238 7.08654 1.09985C7.16146 1.03733 7.25639 1.00203 7.35511 1H10.6449C10.742 1.00163 10.8356 1.03536 10.9103 1.09564C10.9851 1.15591 11.0364 1.23913 11.056 1.33159L11.3145 3.11925C11.329 3.21722 11.3682 3.31019 11.4285 3.38988C11.4889 3.46958 11.5686 3.53354 11.6606 3.57607C11.9482 3.71101 12.2242 3.86815 12.4859 4.04598C12.5697 4.10266 12.6667 4.13818 12.7682 4.14934C12.8696 4.1605 12.9723 4.14695 13.067 4.10991L14.7935 3.43439C14.8849 3.40053 14.9858 3.39913 15.0782 3.43045C15.1707 3.46177 15.2488 3.5238 15.2988 3.60561L16.9437 6.37196C16.9931 6.45461 17.0108 6.55164 16.9936 6.64577C16.9763 6.7399 16.9252 6.82502 16.8495 6.88598L15.3799 8.00748C15.2991 8.0694 15.2354 8.14999 15.1948 8.24192C15.1542 8.33385 15.1378 8.4342 15.1473 8.53383C15.16 8.6886 15.1684 8.84411 15.1684 9Z"  stroke-width="1.6" stroke-linecap="round" stroke-linejoin="round"/>
</svg>
