<svg viewBox="0 0 18 16"  fill="currentColor"; xmlns="http://www.w3.org/2000/svg">
<path d="M17.4889 0H0.266684C0.193981 0.00560885 0.126088 0.0385041 0.0766282 0.0920855C0.0271685 0.145667 -0.000198867 0.21597 1.71654e-05 0.288889V1.24444C-0.000650422 1.34239 0.0181608 1.43948 0.0553569 1.53009C0.092553 1.62069 0.147392 1.703 0.216684 1.77222L6.88335 8.43889V13.9944L10.9111 16V8.42778L17.5778 1.76111C17.7053 1.62354 17.7767 1.44316 17.7778 1.25556V0.288889C17.7778 0.212271 17.7474 0.138791 17.6932 0.0846137C17.639 0.0304365 17.5655 0 17.4889 0Z" />
</svg>
