<svg width="40" height="40" viewBox="0 0 40 40" fill="none" xmlns="http://www.w3.org/2000/svg">
<path d="M20 11C21.5913 11 23.1174 11.6321 24.2426 12.7574C25.3679 13.8826 26 15.4087 26 17C26 19.97 23.84 22.44 21 22.92V25H23V27H21V29H19V27H17V25H19V22.92C16.16 22.44 14 19.97 14 17C14 15.4087 14.6321 13.8826 15.7574 12.7574C16.8826 11.6321 18.4087 11 20 11ZM20 13C18.9391 13 17.9217 13.4214 17.1716 14.1716C16.4214 14.9217 16 15.9391 16 17C16 18.0609 16.4214 19.0783 17.1716 19.8284C17.9217 20.5786 18.9391 21 20 21C21.0609 21 22.0783 20.5786 22.8284 19.8284C23.5786 19.0783 24 18.0609 24 17C24 15.9391 23.5786 14.9217 22.8284 14.1716C22.0783 13.4214 21.0609 13 20 13Z" fill="#FF7BAC"/>
<circle opacity="0.1" cx="20" cy="20" r="20" fill="#FD7BAD"/>
</svg>
